<svg width="920" height="720" xmlns="http://www.w3.org/2000/svg">
    <line x1="4.588617886178861" y1="3.508943089430894" x2="170.58861788617884" y2="3.508943089430894" style="fill:none;stroke:#000000;stroke-width:1" />
<line x1="170.58861788617884" y1="3.508943089430894" x2="170.31869918699186" y2="122.00325203252032" style="fill:none;stroke:#000000;stroke-width:1" />
<line x1="170.31869918699186" y1="122.00325203252032" x2="4.8585365853658535" y2="122.00325203252032" style="fill:none;stroke:#000000;stroke-width:1" />
<line x1="4.8585365853658535" y1="122.00325203252032" x2="4.588617886178861" y2="3.508943089430894" style="fill:none;stroke:#000000;stroke-width:1" />
<line x1="4.588617886178861" y1="3.508943089430894" x2="170.58861788617884" y2="3.508943089430894" style="fill:none;stroke:#000000;stroke-width:1" />
<line x1="170.58861788617884" y1="3.508943089430894" x2="170.31869918699186" y2="122.00325203252032" style="fill:none;stroke:#000000;stroke-width:1" />
<line x1="170.31869918699186" y1="122.00325203252032" x2="4.8585365853658535" y2="122.00325203252032" style="fill:none;stroke:#000000;stroke-width:1" />
<line x1="4.8585365853658535" y1="122.00325203252032" x2="4.588617886178861" y2="3.508943089430894" style="fill:none;stroke:#000000;stroke-width:1" />
<line x1="4.588617886178861" y1="3.508943089430894" x2="170.58861788617884" y2="3.508943089430894" style="fill:none;stroke:#000000;stroke-width:1" />
<line x1="170.58861788617884" y1="3.508943089430894" x2="170.31869918699186" y2="122.00325203252032" style="fill:none;stroke:#000000;stroke-width:1" />
<line x1="170.31869918699186" y1="122.00325203252032" x2="4.8585365853658535" y2="122.00325203252032" style="fill:none;stroke:#000000;stroke-width:1" />
<line x1="4.8585365853658535" y1="122.00325203252032" x2="4.588617886178861" y2="3.508943089430894" style="fill:none;stroke:#000000;stroke-width:1" />
<!-- Cross below -->
<line x1="69.6390243902439" y1="61.81138211382113" x2="89.88292682926829" y2="61.541463414634144" style="fill:none;stroke:#000000;stroke-width:1" />
<!-- Cross below -->
<line x1="77.46666666666665" y1="68.55934959349592" x2="78.00650406504064" y2="51.01463414634146" style="fill:none;stroke:#000000;stroke-width:1" />
<!-- Cross below -->
<line x1="81.24552845528454" y1="69.90894308943089" x2="81.51544715447154" y2="50.204878048780486" style="fill:none;stroke:#000000;stroke-width:1" />
<!-- Cross below -->
<line x1="70.98861788617886" y1="58.03252032520325" x2="89.07317073170731" y2="58.03252032520325" style="fill:none;stroke:#000000;stroke-width:1" />
</svg>